{
	"info": {
		"_postman_id": "99f05141-1738-4041-8bfa-53cb231ce4f5",
		"name": "Letsplay",
		"schema": "https://schema.getpostman.com/json/collection/v2.1.0/collection.json"
	},
	"item": [
		{
			"name": "http://localhost:9090/api/games/",
			"request": {
				"method": "POST",
				"header": [
					{
						"key": "Content-Type",
						"name": "Content-Type",
						"value": "application/json",
						"type": "text"
					}
				],
				"body": {
					"mode": "raw",
					"raw": "{\n\t\"title\":\"Borderlands Game of the Year\",\n\t\"description\":\"Get ready for the mind blowing insanity! Play as one of four trigger-happy mercenaries and take out everything that stands in your way! With its addictive action, frantic first-person shooter combat, massive arsenal of weaponry, RPG elements and four-player co-op, Borderlands is a breakthrough experience that challenges all the...\",\n\t\"pegi\":\"18\",\n\t\"studio\": {\n\t\t\"name\":\"Gearbox Software\"\n\t},\n\t\"publisher\": {\n\t\t\"name\":\"2K\"\n\t}\n}"
				},
				"url": {
					"raw": "http://localhost:9090/api/games/",
					"protocol": "http",
					"host": [
						"localhost"
					],
					"port": "9090",
					"path": [
						"api",
						"games",
						""
					]
				},
				"description": "Create game"
			},
			"response": []
		}
	]
}